346 -> 165 -> 297 -> 144 -> 214 -> 349 -> 285 -> 95 -> 89 -> 131 -> 79
346 -> 79
342 -> 397 -> 256 -> 368 -> 387
342 -> 387
348 -> 340 -> 336 -> 326 -> 68 -> 86 -> 129 -> 56 -> 146 -> 308 -> 359 -> 321 -> 36
299 -> 43 -> 13 -> 279 -> 138 -> 81 -> 235 -> 344 -> 302 -> 278 -> 376 -> 90
296 -> 30 -> 251 -> 360 -> 201 -> 193 -> 171 -> 356 -> 159 -> 370 -> 205 -> 234 -> 316 -> 100 -> 237 -> 390
296 -> 390
295 -> 283 -> 369 -> 179 -> 260 -> 199 -> 190 -> 108 -> 141 -> 137 -> 307 -> 346
195 -> 33 -> 160 -> 157 -> 47 -> 231 -> 91 -> 332 -> 317 -> 345 -> 115 -> 386 -> 25 -> 396 -> 38
38 -> 16 -> 212 -> 287 -> 46 -> 41 -> 338 -> 48 -> 373 -> 252 -> 299
38 -> 299
31 -> 63 -> 248 -> 39 -> 124 -> 175 -> 87 -> 379 -> 164
31 -> 164
36 -> 243 -> 176 -> 183
36 -> 183
335 -> 239 -> 4 -> 76 -> 8 -> 339 -> 191 -> 296
90 -> 277 -> 294 -> 225 -> 363 -> 198 -> 12 -> 257 -> 55 -> 352 -> 286 -> 29
90 -> 29
1 -> 224 -> 381 -> 75 -> 358 -> 102 -> 282
1 -> 282
29 -> 35 -> 10 -> 328
242 -> 298 -> 263 -> 258 -> 281 -> 204 -> 218 -> 230 -> 383 -> 99 -> 96 -> 161 -> 362 -> 111 -> 1
174 -> 182 -> 143 -> 9 -> 24 -> 241 -> 380 -> 180 -> 17 -> 304
174 -> 304
183 -> 7 -> 187 -> 93 -> 154 -> 64 -> 240 -> 325 -> 374 -> 233 -> 14 -> 125 -> 65 -> 318 -> 377 -> 80 -> 92 -> 50
15 -> 319 -> 26 -> 222 -> 20 -> 343 -> 273 -> 83 -> 275 -> 211 -> 152 -> 163 -> 311 -> 291 -> 84 -> 203 -> 61 -> 348
15 -> 348
328 -> 284 -> 268 -> 372 -> 337 -> 72 -> 266 -> 394 -> 114 -> 391 -> 384 -> 106 -> 355
328 -> 355
329 -> 227 -> 305 -> 11 -> 2 -> 32 -> 303 -> 334 -> 69 -> 219 -> 295
329 -> 295
79 -> 135 -> 371 -> 288 -> 3 -> 167 -> 74 -> 110 -> 197 -> 58 -> 156 -> 312 -> 217 -> 351 -> 31
128 -> 51 -> 140 -> 151 -> 382 -> 207 -> 145 -> 322 -> 195
128 -> 195
385 -> 158 -> 62 -> 139 -> 289 -> 221 -> 213 -> 335
385 -> 335
387 -> 153 -> 223 -> 34 -> 60 -> 37 -> 238 -> 49 -> 126 -> 247 -> 149 -> 364 -> 70 -> 107 -> 27 -> 113 -> 385
164 -> 196 -> 262 -> 162 -> 53 -> 66 -> 347 -> 208 -> 103 -> 67 -> 128
355 -> 367 -> 82 -> 109 -> 188 -> 220 -> 119 -> 261 -> 389 -> 85 -> 267 -> 388 -> 172 -> 341 -> 97 -> 274 -> 353 -> 342
282 -> 264 -> 194 -> 216 -> 276 -> 300 -> 271 -> 52 -> 228 -> 280 -> 28 -> 132 -> 57 -> 361 -> 185 -> 320 -> 174
304 -> 250 -> 21 -> 120 -> 357 -> 329
390 -> 255 -> 15
292 -> 327 -> 88 -> 23 -> 6 -> 98 -> 309 -> 155 -> 134 -> 236 -> 94 -> 398 -> 150 -> 170 -> 200 -> 209 -> 259 -> 392 -> 333 -> 206 -> 292
293 -> 112 -> 127 -> 210 -> 330 -> 44 -> 354 -> 313 -> 71 -> 59 -> 122 -> 177 -> 148 -> 229 -> 18 -> 249 -> 395 -> 290 -> 375 -> 350 -> 293
192 -> 301 -> 202 -> 399 -> 130 -> 265 -> 147 -> 54 -> 118 -> 78 -> 181 -> 253 -> 0 -> 331 -> 245 -> 117 -> 366 -> 73 -> 166 -> 323 -> 192
270 -> 116 -> 105 -> 272 -> 45 -> 136 -> 189 -> 306 -> 133 -> 254 -> 168 -> 215 -> 19 -> 186 -> 22 -> 315 -> 142 -> 123 -> 42 -> 77 -> 270
101 -> 365 -> 393 -> 184 -> 246 -> 178 -> 324 -> 310 -> 226 -> 169 -> 173 -> 314 -> 104 -> 5 -> 378 -> 269 -> 40 -> 121 -> 244 -> 232 -> 101
